\relax 
\providecommand\hyper@newdestlabel[2]{}
\@writefile{toc}{\contentsline {section}{\numberline {1}Dataset first impact analysis}{1}{section.1}}
\@writefile{toc}{\contentsline {subsection}{\numberline {1.1}The columns}{1}{subsection.1.1}}
\@writefile{toc}{\contentsline {subsection}{\numberline {1.2}Some descriptive statistic}{1}{subsection.1.2}}
\@writefile{toc}{\contentsline {subsection}{\numberline {1.3}Histogram of data}{3}{subsection.1.3}}
\@writefile{toc}{\contentsline {section}{\numberline {2}Error checking}{3}{section.2}}
\@writefile{toc}{\contentsline {subsection}{\numberline {2.1}NA checking}{3}{subsection.2.1}}
\newlabel{na-checking}{{2.1}{3}{NA checking}{subsection.2.1}{}}
\@writefile{toc}{\contentsline {subsection}{\numberline {2.2}Strategies to replace NA:}{4}{subsection.2.2}}
\newlabel{strategies-to-replace-na}{{2.2}{4}{Strategies to replace NA:}{subsection.2.2}{}}
\@writefile{toc}{\contentsline {section}{\numberline {3}Correctness data checking}{4}{section.3}}
\newlabel{correctness-data-checking}{{3}{4}{Correctness data checking}{section.3}{}}
\@writefile{toc}{\contentsline {subsection}{\numberline {3.1}Data consistency}{4}{subsection.3.1}}
\newlabel{data-consistency}{{3.1}{4}{Data consistency}{subsection.3.1}{}}
\@writefile{toc}{\contentsline {subsubsection}{\numberline {3.1.1}Rows with date inconsistency}{4}{subsubsection.3.1.1}}
\newlabel{rows-with-date-inconsistency}{{3.1.1}{4}{Rows with date inconsistency}{subsubsection.3.1.1}{}}
\@writefile{toc}{\contentsline {subsubsection}{\numberline {3.1.2}In some cases we have \(INIZIO\_PUBBLICITA > FINE\_PUBBLICITA\).}{4}{subsubsection.3.1.2}}
\newlabel{in-some-cases-we-have-inizio_pubblicita-fine_pubblicita.}{{3.1.2}{4}{\texorpdfstring {In some cases we have \(INIZIO\_PUBBLICITA > FINE\_PUBBLICITA\).}{In some cases we have INIZIO\textbackslash {}\_PUBBLICITA \textgreater {} FINE\textbackslash {}\_PUBBLICITA.}}{subsubsection.3.1.2}{}}
\@writefile{toc}{\contentsline {subsubsection}{\numberline {3.1.3}Final check of inconsistent dates}{4}{subsubsection.3.1.3}}
\newlabel{final-check-of-inconsistent-dates}{{3.1.3}{4}{Final check of inconsistent dates}{subsubsection.3.1.3}{}}
\@writefile{toc}{\contentsline {subsection}{\numberline {3.2}Checking irrealistic years}{5}{subsection.3.2}}
\newlabel{post-model-checking-insensate-years}{{3.2}{5}{Checking irrealistic years}{subsection.3.2}{}}
\@writefile{toc}{\contentsline {subsubsection}{\numberline {3.2.1}Histogram of wrong year in "INIZIO$ \_ $PUBBLICITA":}{5}{subsubsection.3.2.1}}
\@writefile{toc}{\contentsline {subsubsection}{\numberline {3.2.2}Histogram of wrong year in "DATA":}{6}{subsubsection.3.2.2}}
\@writefile{toc}{\contentsline {subsubsection}{\numberline {3.2.3}Histogram of wrong year in "FINE$ \_ $PUBBLICITA":}{6}{subsubsection.3.2.3}}
\@writefile{toc}{\contentsline {subsection}{\numberline {3.3}Solve irrealistic year:}{7}{subsection.3.3}}
\newlabel{solve-irrealistic-year}{{3.3}{7}{Solve irrealistic year:}{subsection.3.3}{}}
\@writefile{toc}{\contentsline {subsection}{\numberline {3.4}Invalid values on `NUMERO\_CLICK\_SITO'}{7}{subsection.3.4}}
\newlabel{invalid-values-on-numero_click_sito}{{3.4}{7}{Invalid values on `NUMERO\_CLICK\_SITO'}{subsection.3.4}{}}
\@setckpt{sections/01-error_checking}{
\setcounter{page}{8}
\setcounter{equation}{0}
\setcounter{enumi}{0}
\setcounter{enumii}{0}
\setcounter{enumiii}{0}
\setcounter{enumiv}{0}
\setcounter{footnote}{0}
\setcounter{mpfootnote}{0}
\setcounter{part}{0}
\setcounter{section}{3}
\setcounter{subsection}{4}
\setcounter{subsubsection}{0}
\setcounter{paragraph}{0}
\setcounter{subparagraph}{0}
\setcounter{figure}{0}
\setcounter{table}{0}
\setcounter{ContinuedFloat}{0}
\setcounter{parentequation}{0}
\setcounter{FancyVerbLine}{1}
\setcounter{Item}{0}
\setcounter{Hfootnote}{0}
\setcounter{bookmark@seq@number}{18}
\setcounter{LT@tables}{0}
\setcounter{LT@chunks}{0}
\setcounter{section@level}{2}
}
