\relax 
\providecommand\hyper@newdestlabel[2]{}
\@writefile{toc}{\contentsline {section}{\numberline {4}Feature engineering}{8}{section.4}}
\@writefile{toc}{\contentsline {subsection}{\numberline {4.1}Feature extraction from datetime types}{8}{subsection.4.1}}
\newlabel{feature-extraction-from-datetime-types}{{4.1}{8}{Feature extraction from datetime types}{subsection.4.1}{}}
\@writefile{toc}{\contentsline {subsubsection}{\numberline {4.1.1}Correlation between variables}{8}{subsubsection.4.1.1}}
\newlabel{correlation-between-variables}{{4.1.1}{8}{Correlation between variables}{subsubsection.4.1.1}{}}
\newlabel{some-observations-on-correlated-variables}{{4.1.1}{9}{Some observations on correlated variables}{section*.1}{}}
\@writefile{toc}{\contentsline {paragraph}{Some observations on correlated variables}{9}{section*.1}}
\@setckpt{sections/02-explorative-analisys-report}{
\setcounter{page}{10}
\setcounter{equation}{0}
\setcounter{enumi}{0}
\setcounter{enumii}{0}
\setcounter{enumiii}{0}
\setcounter{enumiv}{0}
\setcounter{footnote}{0}
\setcounter{mpfootnote}{0}
\setcounter{part}{0}
\setcounter{section}{4}
\setcounter{subsection}{1}
\setcounter{subsubsection}{1}
\setcounter{paragraph}{0}
\setcounter{subparagraph}{0}
\setcounter{figure}{0}
\setcounter{table}{0}
\setcounter{ContinuedFloat}{0}
\setcounter{parentequation}{0}
\setcounter{FancyVerbLine}{3}
\setcounter{Item}{0}
\setcounter{Hfootnote}{0}
\setcounter{bookmark@seq@number}{21}
\setcounter{LT@tables}{0}
\setcounter{LT@chunks}{0}
\setcounter{section@level}{4}
}
