\relax 
\providecommand\hyper@newdestlabel[2]{}
\@writefile{toc}{\contentsline {section}{\numberline {5}Model phase}{10}{section.5}}
\@writefile{toc}{\contentsline {subsection}{\numberline {5.1}Validation phase}{10}{subsection.5.1}}
\newlabel{validation-phase}{{5.1}{10}{Validation phase}{subsection.5.1}{}}
\@writefile{toc}{\contentsline {subsubsection}{\numberline {5.1.1}Validation on n$ \_ $estimators}{10}{subsubsection.5.1.1}}
\@writefile{toc}{\contentsline {subsubsection}{\numberline {5.1.2}Validation on min$ \_ $samples$ \_ $split}{11}{subsubsection.5.1.2}}
\@writefile{toc}{\contentsline {section}{\numberline {6}Parameters choice}{11}{section.6}}
\@writefile{toc}{\contentsline {section}{\numberline {7}Ensemble of ensemble}{11}{section.7}}
\@setckpt{sections/03-model-report}{
\setcounter{page}{12}
\setcounter{equation}{0}
\setcounter{enumi}{0}
\setcounter{enumii}{0}
\setcounter{enumiii}{0}
\setcounter{enumiv}{0}
\setcounter{footnote}{0}
\setcounter{mpfootnote}{0}
\setcounter{part}{0}
\setcounter{section}{7}
\setcounter{subsection}{0}
\setcounter{subsubsection}{0}
\setcounter{paragraph}{0}
\setcounter{subparagraph}{0}
\setcounter{figure}{0}
\setcounter{table}{0}
\setcounter{ContinuedFloat}{0}
\setcounter{parentequation}{0}
\setcounter{FancyVerbLine}{1}
\setcounter{Item}{0}
\setcounter{Hfootnote}{0}
\setcounter{bookmark@seq@number}{27}
\setcounter{LT@tables}{0}
\setcounter{LT@chunks}{0}
\setcounter{section@level}{1}
}
